A.f  A.f
A.h  A.h
A.i  A.i
B.g  B.g
B.f  B.f
A.f  A.f
A.h  A.h
A.i  A.i
A.h  A.h
A.i  A.i
C.g  C.g
B.f  B.f
A.f  A.f
A.h  A.h
C.i  C.i
A.h  A.h
C.i  C.i
A.f
A.h
A.i
A.f
A.h
A.i
B.f
A.f
A.h
A.i
A.h
A.i